{
    "HyperParameters": {
        "nLstmUnits": 64, 
        "featureDim": 64, 
        "patchSizes": [
            5
        ], 
        "numLocations": 1, 
        "sigma": 1, 
        "predSteps": 3, 
        "M": 10, 
        "inputDim": [
            28, 
            28, 
            1
        ], 
        "maxObjs": 1
    }, 
    "Names": {
        "input_original": "input_orig", 
        "prediction_sequence": "Generative_Model/prediction_sequence", 
        "labels": "targets", 
        "prediction": "prediction", 
        "location_sequence": "Generative_Model/location_sequence", 
        "labels_key": "__target_key__"
    }, 
    "Architecture": {
        "ContextNet": {
            "conv3": {
                "b_init": "zeros", 
                "fs": 5, 
                "nf": 32, 
                "train": true, 
                "act": "elu", 
                "W_init": "xavier_conv", 
                "reg": [
                    "L2", 
                    0.1
                ]
            }, 
            "conv2": {
                "b_init": "zeros", 
                "fs": 5, 
                "nf": 32, 
                "train": true, 
                "act": "elu", 
                "W_init": "xavier_conv", 
                "reg": [
                    "L2", 
                    0.1
                ]
            }, 
            "conv1": {
                "b_init": "zeros", 
                "fs": 5, 
                "nf": 32, 
                "train": true, 
                "act": "elu", 
                "W_init": "xavier_conv", 
                "reg": [
                    "L2", 
                    0.1
                ]
            }, 
            "train": true, 
            "fc1": {
                "b_init": "zeros", 
                "nu": 64, 
                "train": true, 
                "act": "elu", 
                "W_init": "xavier", 
                "reg": [
                    "L2", 
                    0.1
                ]
            }
        }, 
        "ClassificationNet": {
            "fc1": {
                "b_init": "zeros", 
                "nu": 64, 
                "train": true, 
                "act": "elu", 
                "W_init": "xavier", 
                "reg": [
                    "L2", 
                    0.1
                ]
            }, 
            "fc2": {
                "b_init": "zeros", 
                "nu": 10, 
                "train": true, 
                "act": "softmax", 
                "W_init": "xavier", 
                "reg": [
                    "L2", 
                    0.1
                ]
            }, 
            "train": true
        }, 
        "GlimpseNet": {
            "ImageNet": {
                "conv3": {
                    "b_init": "zeros", 
                    "fs": 5, 
                    "nf": 32, 
                    "train": true, 
                    "act": "elu", 
                    "W_init": "xavier_conv", 
                    "reg": [
                        "L2", 
                        0.1
                    ]
                }, 
                "conv2": {
                    "b_init": "zeros", 
                    "fs": 5, 
                    "nf": 32, 
                    "train": true, 
                    "act": "elu", 
                    "W_init": "xavier_conv", 
                    "reg": [
                        "L2", 
                        0.1
                    ]
                }, 
                "conv1": {
                    "b_init": "zeros", 
                    "fs": 5, 
                    "nf": 32, 
                    "train": true, 
                    "act": "elu", 
                    "W_init": "xavier_conv", 
                    "reg": [
                        "L2", 
                        0.1
                    ]
                }, 
                "train": true, 
                "fc1": {
                    "b_init": "zeros", 
                    "nu": 64, 
                    "train": true, 
                    "act": "elu", 
                    "W_init": "xavier", 
                    "reg": [
                        "L2", 
                        0.1
                    ]
                }
            }, 
            "train": true, 
            "LocationNet": {
                "fc1": {
                    "b_init": "zeros", 
                    "nu": 64, 
                    "train": true, 
                    "act": "elu", 
                    "W_init": "xavier", 
                    "reg": [
                        "L2", 
                        0.1
                    ]
                }, 
                "train": true
            }
        }, 
        "EmissionNet": {
            "fc1": {
                "b_init": "zeros", 
                "nu": 2, 
                "train": true, 
                "act": "tanh", 
                "W_init": "xavier", 
                "reg": [
                    "L2", 
                    0.1
                ]
            }, 
            "unit_pixels": 25.2, 
            "train": true, 
            "pixel_ratio": 0.9
        }, 
        "Targets": {
            "outputDim": [
                10
            ]
        }
    }, 
    "GlimpseGeneration": {
        "centered": true, 
        "normalized": false
    }, 
    "Dataset": {
        "dset": "M", 
        "subset": "complete-sort"
    }
}
